setup_vision = yes
government = monarchy
add_government_reform = isolated_kingdom_reform
government_rank = 2
primary_culture = sangsogha
religion = bangujonsi
technology_group = tech_halessi
capital = 5353

1000.1.1 = { set_country_flag = mage_organization_centralized_flag }

1200.1.1 = { set_estate_privilege = estate_nobility_yangban }

1390.1.1 = {
	monarch = {
		name = "Jeong-Hun"
		dynasty = "Gyo"
		adm = 6
		dip = 5
		mil = 5
		birth_date = 1365.5.7
		death_date = 1475.5.18
	}
	add_ruler_personality = zealot_personality 
	add_ruler_personality = righteous_personality
	add_ruler_personality = scholar_personality
	set_ruler_flag = daengun_peacemaker
	# set_ruler_flag = honored_ancestor_patron
	# set_variable = {
	# 	which = PatronApproval
	# 	value = 8
	# }
}

1415.1.1 = {
	queen = {
		country_of_origin = Y95
		name = "Gyuri"
		dynasty = "Choi"
		culture = menjeotaen
		birth_date = 1395.10.12
		death_date = 1446.4.19
		female = yes
		adm = 4
		dip = 3
		mil = 3
	}
	add_queen_personality = kind_hearted_personality
}

1418.1.1 = {
	heir = {
		name = "Haeng"
		dynasty = "Gyo"
		birth_date = 1418.1.1
		death_date = 1478.6.1
		claim = 95
		adm = 4
		dip = 2
		mil = 3
	}
	add_heir_personality = free_thinker_personality
}