name="Anbennar_Europe"
tags={
	"Alternative History"
	"Total Conversion"
	"Fantasy"
	"Gameplay"
}
replace_path="common/bookmarks"
replace_path="common/province_names"
replace_path="common/government_names"
replace_path="common/disasters"
replace_path="common/rebel_types"
replace_path="common/countries"
replace_path="common/mercenary_companies"
replace_path="events"
replace_path="missions"
replace_path="decisions"
replace_path="history/diplomacy"
replace_path="history/countries"
replace_path="history/wars"
replace_path="history/provinces"
replace_path="history/advisors"
replace_path="gfx/loadingscreens"
picture="Europe_Fork"
supported_version="1.33.*"
path="C:/Users/Alex/Documents/Paradox Interactive/Europa Universalis IV/mod/Anbennar_Europe"
remote_file_id="2803727441"