
spawn_vampire_broken_masquerade = {
	if = {
		limit = { total_development = 500 }
		random_owned_province = {
			limit = { 
				is_in_capital_area = yes 
				is_capital = no 
			}
			spawn_rebels = {
				type = vampires_nobles
				size = 3
			}

			#new AW stuff. Adds tier 3 to province, essentially
			hidden_effect = {
				if = {
					limit = {
						OR = {
							has_province_modifier = aw_vampires_1
							has_province_modifier = aw_vampires_2
							has_province_modifier = aw_vampires_3
						}
					}
					remove_province_modifier = aw_vampires_1
					remove_province_modifier = aw_vampires_2
					remove_province_modifier = aw_vampires_3
				}
				add_permanent_province_modifier = {
					name = aw_vampires_3
					duration = -1
				}
			}
		}
	}
	else = {
		random_owned_province = {
			limit = { is_in_capital_area = yes is_capital = no }
			spawn_rebels = {
				type = vampires_nobles
				size = 2
			}
			#new AW stuff. Adds tier 3 to province, essentially
			hidden_effect = {
				if = {
					limit = {
						OR = {
							has_province_modifier = aw_vampires_1
							has_province_modifier = aw_vampires_2
							has_province_modifier = aw_vampires_3
						}
					}
					remove_province_modifier = aw_vampires_1
					remove_province_modifier = aw_vampires_2
					remove_province_modifier = aw_vampires_3
				}
				add_permanent_province_modifier = {
					name = aw_vampires_3
					duration = -1
				}
			}
		}
	}
}

spawn_hideout_vampires = {
	if = {
		limit = { ROOT = { has_disaster = estate_vampires_restore_masquerade_disaster } }
		hidden_effect = { set_province_flag = can_clear_hideout }
		if = {
			limit = { ROOT = { total_development = 500 } }
			spawn_rebels = {
				type = vampires_nobles
				size = 3
				win = yes
			}
		}
		else = {
			spawn_rebels = {
				type = vampires_nobles
				size = 2
				win = yes
			}
		}
	}
	else_if = {
		limit = { ROOT = { has_disaster = estate_vampires_install_thrall_disaster } }
		if = {
			limit = { has_province_flag = hidding_vampire }
			province_event = { id = disaster_vampire_masquerade.19 }
		}
		else = {
			province_event = { id = disaster_vampire_masquerade.20 }
		}
	}
}

clr_vampire_hideout = {
	if = {
		limit = { NOT = { ROOT = { tag = REB } } }
		if = {
			limit = { FROM = { has_province_modifier = vampire_hideout has_province_flag = can_clear_hideout } }
			FROM = { remove_province_modifier = vampire_hideout }
			FROM = { clr_province_flag = can_clear_hideout }
		}
	}
}

clear_vampire_organization = {
	hidden_effect = {
		remove_estate_privilege = estate_vampires_organization_the_blood_court
		remove_estate_privilege = estate_vampires_organization_bloody_aristocracy
		remove_estate_privilege = estate_vampires_organization_vampiric_emigres
		remove_estate_privilege = estate_vampires_organization_vampires_lord
		remove_estate_privilege = estate_vampires_organization_the_covenant
	}
}

clear_vampire_law = {
	hidden_effect = {
		remove_estate_privilege = estate_vampires_law_state_collusion_masquerade
		remove_estate_privilege = estate_vampires_law_traditional_masquerade
		remove_estate_privilege = estate_vampires_law_open_rule
	}
}

set_vampires_hideout_restore_masquerade = {
	hidden_effect = {
		set_variable = { hideout = 3 }
		set_variable = { x = 0 }
		if = {
			limit = {
				NOT = {
					estate_loyalty = {
						estate = estate_vampires
						loyalty = 80
					}
				}
			}
			change_variable = { hideout = 1 }
		}
		if = {
			limit = {
				NOT = {
					estate_loyalty = {
						estate = estate_vampires
						loyalty = 60
					}
				}
			}
			change_variable = { hideout = 1 }
		}
		if = {
			limit = {
				NOT = {
					estate_loyalty = {
						estate = estate_vampires
						loyalty = 40
					}
				}
			}
			change_variable = { hideout = 1 }
		}
		if = {
			limit = {
				NOT = {
					estate_loyalty = {
						estate = estate_vampires
						loyalty = 20
					}
				}
			}
			change_variable = { hideout = 1 }
		}
		if = {
			limit = {
				NOT = {
					estate_loyalty = {
						estate = estate_vampires
						loyalty = 10
					}
				}
			}
			change_variable = { hideout = 1 }
		}
		if = {
			limit = {
				NOT = {
					estate_loyalty = {
						estate = estate_vampires
						loyalty = 5
					}
				}
			}
			change_variable = { hideout = 1 }
		}
		if = {
			limit = {
				has_country_modifier = outed_vampire
			}
			change_variable = { hideout = 2 }
		}
		while = {
			limit = { NOT = { check_variable = { which = hideout value = 0 } } }
			random_owned_province = {
				limit = { is_in_capital_area = yes is_capital = no NOT = { has_province_modifier = vampire_hideout } }
				if = {
					limit = { any_neighbor_province = { fort_level = 2 NOT = { has_province_modifier = vampire_hideout } } } #Don't Spawn next to forts where possible
					random_neighbor_province = {
						limit = { fort_level = 2 NOT = { has_province_modifier = vampire_hideout } }
						add_province_modifier = {
							name = vampire_hideout
							duration = -1
						}
					}
				}
				else = {
					add_province_modifier = {
						name = vampire_hideout
						duration = -1
					}
				}
			}
			subtract_variable = { which = hideout value = 1 }
		}
	}
}

set_vampires_hideout_install_thrall = {
	hidden_effect = {
		set_variable = { x = 0 }
		while = {
			limit = { NOT = { check_variable = { x = 5 } } }
			random_owned_province = {
				limit = { is_in_capital_area = yes is_capital = no NOT = { has_province_modifier = vampire_hideout } }
				add_province_modifier = {
					name = vampire_hideout
					duration = -1
				}
				set_province_flag = hidding_vampire
			}
			change_variable = { x = 1 }
		}
		
		while = {
			limit = { NOT = { check_variable = { x = 10 } } }
			random_owned_province = {
				limit = { is_in_capital_area = yes is_capital = no NOT = { has_province_modifier = vampire_hideout } }
				add_province_modifier = {
					name = vampire_hideout
					duration = -1
				}
			}
			change_variable = { x = 1 }
		}
	}
}

target_vampire_hideout = {
	set_country_flag = hideout_vampire_menu
	random_owned_province = {
		limit = { has_province_modifier = vampire_hideout NOT = { has_province_flag = target@ROOT } }
		set_province_flag = target@ROOT
		set_province_flag = target1@ROOT
		save_event_target_as = hideout_1
	}
	random_owned_province = {
		limit = { has_province_modifier = vampire_hideout NOT = { has_province_flag = target@ROOT } }
		set_province_flag = target@ROOT
		set_province_flag = target2@ROOT
		save_event_target_as = hideout_2
	}
	random_owned_province = {
		limit = { has_province_modifier = vampire_hideout NOT = { has_province_flag = target@ROOT } }
		set_province_flag = target@ROOT
		set_province_flag = target3@ROOT
		save_event_target_as = hideout_3
	}
	random_owned_province = {
		limit = { has_province_modifier = vampire_hideout NOT = { has_province_flag = target@ROOT } }
		set_province_flag = target@ROOT
		set_province_flag = target4@ROOT
		save_event_target_as = hideout_4
	}
	random_owned_province = {
		limit = { has_province_modifier = vampire_hideout NOT = { has_province_flag = target@ROOT } }
		set_province_flag = target@ROOT
		set_province_flag = target5@ROOT
		save_event_target_as = hideout_5
	}
	random_owned_province = {
		limit = { has_province_modifier = vampire_hideout NOT = { has_province_flag = target@ROOT } }
		set_province_flag = target@ROOT
		set_province_flag = target6@ROOT
		save_event_target_as = hideout_6
	}
	random_owned_province = {
		limit = { has_province_modifier = vampire_hideout NOT = { has_province_flag = target@ROOT } }
		set_province_flag = target@ROOT
		set_province_flag = target7@ROOT
		save_event_target_as = hideout_7
	}
	random_owned_province = {
		limit = { has_province_modifier = vampire_hideout NOT = { has_province_flag = target@ROOT } }
		set_province_flag = target@ROOT
		set_province_flag = target8@ROOT
		save_event_target_as = hideout_8
	}
	random_owned_province = {
		limit = { has_province_modifier = vampire_hideout NOT = { has_province_flag = target@ROOT } }
		set_province_flag = target@ROOT
		set_province_flag = target9@ROOT
		save_event_target_as = hideout_9
	}
}

clr_vampire_hideout_menu = {
	hidden_effect = {
		every_owned_province = {
			limit = { has_province_flag = target@ROOT }
			clr_province_flag = target@ROOT
			clr_province_flag = target1@ROOT
			clr_province_flag = target2@ROOT
			clr_province_flag = target3@ROOT
			clr_province_flag = target4@ROOT
			clr_province_flag = target5@ROOT
			clr_province_flag = target6@ROOT
			clr_province_flag = target7@ROOT
			clr_province_flag = target8@ROOT
			clr_province_flag = target9@ROOT
		}
		clr_country_flag = hideout_vampire_menu
	}
}

vampire_led_pretender_revolt = {
	hidden_effect = {
		ROOT = {
			set_variable = { hideout = 0 }
			every_owned_province = {
				limit = { has_province_modifier = vampire_hideout }
				ROOT = { change_variable = { hideout = 1 } }
			}
		}
	}
	if = {
		limit = { ROOT = { check_variable = { hideout = 9 } } }
		spawn_rebels = {
			type = pretender_rebels
			size = 10
			female = yes
		}
	}
	else_if = {
		limit = { ROOT = { check_variable = { hideout = 8 } } }
		spawn_rebels = {
			type = pretender_rebels
			size = 9
		}
	}
	else_if = {
		limit = { ROOT = { check_variable = { hideout = 7 } } }
		spawn_rebels = {
			type = pretender_rebels
			size = 8
			female = yes
		}
	}
	else_if = {
		limit = { ROOT = { check_variable = { hideout = 6 } } }
		spawn_rebels = {
			type = pretender_rebels
			size = 7
		}
	}
	else_if = {
		limit = { ROOT = { check_variable = { hideout = 5 } } }
		spawn_rebels = {
			type = pretender_rebels
			size = 6
			female = yes
		}
	}
	else_if = {
		limit = { ROOT = { check_variable = { hideout = 4 } } }
		spawn_rebels = {
			type = pretender_rebels
			size = 5
		}
	}
	else_if = {
		limit = { ROOT = { check_variable = { hideout = 3 } } }
		spawn_rebels = {
			type = pretender_rebels
			size = 4
			female = yes
		}
	}
	else_if = {
		limit = { ROOT = { check_variable = { hideout = 2 } } }
		spawn_rebels = {
			type = pretender_rebels
			size = 3
		}
	}
	else_if = {
		limit = { ROOT = { check_variable = { hideout = 1 } } }
		spawn_rebels = {
			type = pretender_rebels
			size = 2
			female = yes
		}
	}
	else_if = {
		limit = { ROOT = { check_variable = { hideout = 0 } } }
		spawn_rebels = {
			type = pretender_rebels
			size = 1
		}
	}
}

#This must be done for all new vampires to ensure their age is tracked correctly
ruler_become_vampire = {
	hidden_effect = {
		save_ruler_stats = yes
		save_ruler_dynasty = yes
		#Reset the timer on how long a vampire has ruled
		if = {
			limit = { OR = { has_country_flag = new_vampire NOT = { has_country_flag = vampire_ruler } } }
			clr_country_flag = new_vampire
			ruler_new_vampire = yes
		}
		set_ruler_flag = is_a_vampire
		if = {
			limit = { is_female = yes }
			clr_country_flag = vampire_ruler_male
			set_country_flag = vampire_ruler_female
		}
		else = {
			clr_country_flag = vampire_ruler_female
			set_country_flag = vampire_ruler_male
		}
		if = {
			limit = { ruler_has_mage_personality = yes }
			set_country_flag = mage_vampire
		}
		else = {
			clr_country_flag = mage_vampire
		}
	}
	if = {
		limit = { NOT = { ruler_has_personality = immortal_personality  } }
		if = {
			limit = { ruler_has_max_personalities = yes }
			clear_ruler_personalities = yes
			# Restore lost Mage personalities
			if = {
				limit = { has_country_flag = mage_vampire }
				add_ruler_personality = mage_personality
			}
		}
		add_ruler_personality = immortal_personality
	}
	tooltip = {
		kill_ruler = yes
	}
	set_ruler_flag = set_immortality
	add_ruler_modifier = { 
		name = vampire_ruler
		duration = -1
	}
	remove_country_modifier = ruler_studying_magic 
	clr_ruler_flag = ruler_studying_abjuration 
	clr_ruler_flag = ruler_studying_conjuration 
	clr_ruler_flag = ruler_studying_divination  
	clr_ruler_flag = ruler_studying_enchantment  
	clr_ruler_flag = ruler_studying_evocation  
	clr_ruler_flag = ruler_studying_illusion  
	clr_ruler_flag = ruler_studying_necromancy  
	clr_ruler_flag = ruler_studying_transmutation  
}

#Should be used for resetting the "age" of a vampire (ie how long they have been ruling without aging), so the game does not see successive vampires as a single one and the "real" age of a vampire can be tracked, even if they revive
ruler_new_vampire = {
	hidden_effect = {
		#Don't want to count the Vampire Points from Previous ruler vampires
		set_variable = {
			which = suspicionPoints
			value = 0
		}
	}
	clr_country_flag = vampire_ruler
	set_country_flag = vampire_ruler
	clr_country_flag = vampire_ruler_has_coffin
	set_country_flag = vampire_ruler_has_coffin
	if = {
		limit = { has_estate_privilege = estate_vampires_law_open_rule }
		set_country_flag = exposed_vampire_ruler
	}
	else = {
		set_country_flag = hidden_ruler_vampire
	}
	if = {
		limit = { is_female = yes }
		clr_country_flag = vampire_ruler_male
		set_country_flag = vampire_ruler_female
	}
	else = {
		clr_country_flag = vampire_ruler_female
		set_country_flag = vampire_ruler_male
	}
	if = {
		limit = { ruler_has_mage_personality = yes }
		set_country_flag = mage_vampire
	}
	else = {
		clr_country_flag = mage_vampire
	}
}

reset_vampire_age = {
	hidden_effect = {
		clr_country_flag = vampire_ruler
		set_country_flag = vampire_ruler
	}
}

clear_ruler_vampire_flags = {
	clr_country_flag = vampire_ruler
	clr_country_flag = vampire_ruler_has_coffin
	clr_country_flag = vampire_ruler_female
	clr_country_flag = vampire_ruler_male
	clr_country_flag = hidden_ruler_vampire
	clr_country_flag = exposed_vampire_ruler
	clr_country_flag = vampire_heir
	clr_country_flag = mage_vampire
	clr_country_flag = vampire_hunter_1
	clr_country_flag = vampire_hunter_2
	clr_country_flag = vampire_hunter_3
	ruler_clear_saved_spell_schools = yes
}

advance_hunter_hunt = {
	custom_tooltip = advance_vampire_hunter
	if = {
		limit = { has_country_flag = vampire_hunter_2 }
		clr_country_flag = vampire_hunter_2
		clr_country_flag = vampire_being_hunted
		country_event = { id = vampire_ruler.22 days = 60 random = 30 }
	}
	else_if = {
		limit = { has_country_flag = vampire_hunter_1 }
		clr_country_flag = vampire_hunter_1
		set_country_flag = vampire_hunter_2
	}
	else_if = {
		limit = { has_country_flag = vampire_being_hunted }
		set_country_flag = vampire_hunter_1
	}
	else = {
		set_country_flag = vampire_being_hunted
	}
}

end_hunter_hunt = {
	custom_tooltip = end_vampire_hunter
	clr_country_flag = vampire_hunter_1
	clr_country_flag = vampire_hunter_2
	clr_country_flag = vampire_hunter_3
}

kill_vampire_ruler = {
	clear_ruler_vampire_flags = yes
	custom_tooltip = vampire_ruler_die_permanent
	hidden_effect = { kill_ruler = yes }
}

#Vampire Points shit
facade_suspicion_increase_1 = {
	if = {
		limit = { ruler_has_facade = yes }
		custom_tooltip = small_increase_suspicion_points
	}
	hidden_effect = {
		change_variable = {
			which = suspicionPoints
			value = 1
		}
	}
}

facade_suspicion_increase_2 = {
	if = {
		limit = { ruler_has_facade = yes }
		custom_tooltip = medium_increase_suspicion_points
	}
	hidden_effect = {
		change_variable = {
			which = suspicionPoints
			value = 2
		}
	}
}

facade_suspicion_increase_5 = {
	if = {
		limit = { ruler_has_facade = yes }
		custom_tooltip = large_increase_suspicion_points
	}
	hidden_effect = {
		change_variable = {
			which = suspicionPoints
			value = 5
		}
	}
}

facade_suspicion_increase_10 = {
	if = {
		limit = { ruler_has_facade = yes }
		custom_tooltip = huge_increase_suspicion_points
	}
	custom_tooltip = huge_increase_suspicion_points
	hidden_effect = {
		change_variable = {
			which = suspicionPoints
			value = 10
		}
	}
}

facade_suspicion_decrease_1 = {
	if = {
		limit = { ruler_has_facade = yes }
		custom_tooltip = small_decrease_suspicion_points
	}
	hidden_effect = {
		if = { 
			limit = {
				check_variable = {
					which = suspicionPoints
					value = 1
				}
			}
			subtract_variable = {
				which = suspicionPoints
				value = 1
			}
		} 
		else = {
			set_variable = {
				which = suspicionPoints
				value = 0
			}
		}
	}
}

facade_suspicion_decrease_2 = {
	if = {
		limit = { ruler_has_facade = yes }
		custom_tooltip = medium_decrease_suspicion_points
	}
	hidden_effect = {
		if = { 
			limit = {
				check_variable = {
					which = suspicionPoints
					value = 2
				}
			}
			subtract_variable = {
				which = suspicionPoints
				value = 2
			}
		} 
		else = {
			set_variable = {
				which = suspicionPoints
				value = 0
			}
		}
	}
}

facade_suspicion_decrease_5 = {
	if = {
		limit = { ruler_has_facade = yes }
		custom_tooltip = large_decrease_suspicion_points
	}
	hidden_effect = {
		if = { 
			limit = {
				check_variable = {
					which = suspicionPoints
					value = 5
				}
			}
			subtract_variable = {
				which = suspicionPoints
				value = 5
			}
		} 
		else = {
			set_variable = {
				which = suspicionPoints
				value = 0
			}
		}
	}
}

facade_suspicion_decrease_10 = {
	if = {
		limit = { ruler_has_facade = yes }
		custom_tooltip = huge_decrease_suspicion_points
	}
	hidden_effect = {
		if = { 
			limit = {
				check_variable = {
					which = suspicionPoints
					value = 10
				}
			}
			subtract_variable = {
				which = suspicionPoints
				value = 10
			}
		} 
		else = {
			set_variable = {
				which = suspicionPoints
				value = 0
			}
		}
	}
}
